, %% Computer: 
, %% Version: , %% Date: Thu Jun 14 10:48:34 EDT 2018

_, ./Basic/Bifurcation.key, 6, 1793,  0,0, headerDL-lazy-auto.txt, 0, 0
E, ./Basic/Cascaded_dynamics.key, 10, 497,  0,0, headerDL-lazy-auto.txt, 0, 1
_, ./Basic/Closed_cases.key, 21, 2789,  0,0, headerDL-lazy-auto.txt, 0, 0
_, ./Basic/Conserved_quantity.key, 20, 250805,  0,0, headerDL-lazy-auto.txt, 0, 0
E, ./Basic/Darboux_equality.key, 12, 2418,  0,0, headerDL-lazy-auto.txt, 0, 1
_, ./Basic/Darboux_inequality.key, 15, 637,  0,0, headerDL-lazy-auto.txt, 0, 0
_, ./Basic/Double_integrator.key, 8, 280,  0,0, headerDL-lazy-auto.txt, 0, 0
E, ./Basic/Exponential_decay__1_.key, 1, 329,  0,0, headerDL-lazy-auto.txt, 0, 1
E, ./Basic/Exponential_decay__2_.key, 1, 330,  0,0, headerDL-lazy-auto.txt, 0, 1
E, ./Basic/Exponential_decay__3_.key, 2, 371,  0,0, headerDL-lazy-auto.txt, 0, 1
E, ./Basic/Exponential_growth__1_.key, 1, 318,  0,0, headerDL-lazy-auto.txt, 0, 1
_, ./Basic/Exponential_growth__2_.key, 16, 860,  0,0, headerDL-lazy-auto.txt, 0, 0
T, ./Basic/Exponential_growth__4_.key, NA, 300000, NA, NA, headerDL-lazy-auto.txt, 0, TIMEOUT
_, ./Basic/Exponential_growth__5_.key, 12, 994,  0,0, headerDL-lazy-auto.txt, 0, 0
E, ./Basic/Fractional_Darboux_equality.key, 1, 2324,  0,0, headerDL-lazy-auto.txt, 0, 1
_, ./Basic/LICS__Example_1_Continuous_car_accelerates_forward.key, 8, 460,  0,0, headerDL-lazy-auto.txt, 0, 0
_, ./Basic/LICS__Example_2_Single_car_drives_forward.key, 51, 866,  0,0, headerDL-lazy-auto.txt, 0, 0
_, ./Basic/LICS__Example_3a_event_triggered_car_drives_forward.key, 54, 866,  0,0, headerDL-lazy-auto.txt, 0, 0
_, ./Basic/LICS__Example_4a_safe_stopping_of_time_triggered_car.key, 66, 1544,  0,0, headerDL-lazy-auto.txt, 0, 0
E, ./Basic/LICS__Example_4b_progress_of_time_triggered_car.key, NA, 300000, NA, NA, headerDL-lazy-auto.txt, 0, ERROR
_, ./Basic/LICS__Example_4c_relative_safety_of_time_triggered_car.key, 73, 8005,  0,0, headerDL-lazy-auto.txt, 0, 0
_, ./Basic/LICS__Example_5_Controllability_Equivalence.key, 13, 573,  0,0, headerDL-lazy-auto.txt, 0, 0
E, ./Basic/LICS__Example_6_MPC_Acceleration_Equivalence.key, 32, 3312,  0,0, headerDL-lazy-auto.txt, 0, 1
E, ./Basic/LICS__Example_7_Model_Predictive_Control_Design_Car.key, NA, 300000, NA, NA, headerDL-lazy-auto.txt, 0, ERROR
_, ./Basic/Nonlinear_1.key, 9, 1007,  0,0, headerDL-lazy-auto.txt, 0, 0
_, ./Basic/Nonlinear_2.key, 11, 828,  0,0, headerDL-lazy-auto.txt, 0, 0
_, ./Basic/Nonlinear_4.key, 17, 67589,  0,0, headerDL-lazy-auto.txt, 0, 0
_, ./Basic/Nonlinear_5.key, 7, 576,  0,0, headerDL-lazy-auto.txt, 0, 0
_, ./Basic/Nonlinear_differential_cut.key, 24, 68449,  0,0, headerDL-lazy-auto.txt, 0, 0
E, ./Basic/Open_cases.key, 2, 1589,  0,0, headerDL-lazy-auto.txt, 0, 1
_, ./Basic/Parametric_switching_between_two_different_damped_oscillators.key, 133, 5694,  0,0, headerDL-lazy-auto.txt, 0, 0
_, ./Basic/Riccati.key, 14, 492,  0,0, headerDL-lazy-auto.txt, 0, 0
_, ./Basic/Rotational_dynamics__1_.key, 11, 401,  0,0, headerDL-lazy-auto.txt, 0, 0
_, ./Basic/Rotational_dynamics__2_.key, 32, 1052,  0,0, headerDL-lazy-auto.txt, 0, 0
_, ./Basic/Rotational_dynamics__3_.key, 34, 853,  0,0, headerDL-lazy-auto.txt, 0, 0
_, ./Basic/STTT_Tutorial__Example_1.key, 7, 269,  0,0, headerDL-lazy-auto.txt, 0, 0
T, ./Basic/STTT_Tutorial__Example_10.key, NA, 300000, NA, NA, headerDL-lazy-auto.txt, 0, TIMEOUT
_, ./Basic/STTT_Tutorial__Example_2.key, 70, 977,  0,0, headerDL-lazy-auto.txt, 0, 0
E, ./Basic/STTT_Tutorial__Example_3a.key, 4, 2354,  0,0, headerDL-lazy-auto.txt, 0, 1
_, ./Basic/STTT_Tutorial__Example_4a.key, 54, 819,  0,0, headerDL-lazy-auto.txt, 0, 0
_, ./Basic/STTT_Tutorial__Example_4b.key, 29, 691,  0,0, headerDL-lazy-auto.txt, 0, 0
_, ./Basic/STTT_Tutorial__Example_4c.key, 81, 1047,  0,0, headerDL-lazy-auto.txt, 0, 0
_, ./Basic/STTT_Tutorial__Example_5.key, 113, 1814,  0,0, headerDL-lazy-auto.txt, 0, 0
_, ./Basic/STTT_Tutorial__Example_6.key, 118, 2581,  0,0, headerDL-lazy-auto.txt, 0, 0
_, ./Basic/STTT_Tutorial__Example_7.key, 141, 6564,  0,0, headerDL-lazy-auto.txt, 0, 0
_, ./Basic/STTT_Tutorial__Example_9a.key, 30, 1224,  0,0, headerDL-lazy-auto.txt, 0, 0
_, ./Basic/STTT_Tutorial__Example_9b.key, 138, 11277,  0,0, headerDL-lazy-auto.txt, 0, 0
_, ./Basic/Single_integrator.key, 7, 234,  0,0, headerDL-lazy-auto.txt, 0, 0
_, ./Basic/Single_integrator_time.key, 8, 180,  0,0, headerDL-lazy-auto.txt, 0, 0
_, ./Basic/Spiral_to_equilibrium.key, 23, 485,  0,0, headerDL-lazy-auto.txt, 0, 0
_, ./Basic/Static_semantics_correctness__Assignment_1.key, 4, 122,  0,0, headerDL-lazy-auto.txt, 0, 0
_, ./Basic/Static_semantics_correctness__Assignment_2.key, 12, 184,  0,0, headerDL-lazy-auto.txt, 0, 0
_, ./Basic/Static_semantics_correctness__Assignment_3.key, 16, 307,  0,0, headerDL-lazy-auto.txt, 0, 0
_, ./Basic/Static_semantics_correctness__Assignment_4.key, 7, 236,  0,0, headerDL-lazy-auto.txt, 0, 0
_, ./Basic/Static_semantics_correctness__Assignment_5.key, 8, 71,  0,0, headerDL-lazy-auto.txt, 0, 0
E, ./Basic/Static_semantics_correctness__Assignment_6.key, NA, 300000, NA, NA, headerDL-lazy-auto.txt, 0, ERROR
_, ./Basic/Static_semantics_correctness__Assignment_7.key, 41, 509,  0,0, headerDL-lazy-auto.txt, 0, 0
_, ./Basic/Static_semantics_correctness__Assignment_8.key, 41, 481,  0,0, headerDL-lazy-auto.txt, 0, 0
E, ./Basic/Static_semantics_correctness__Assignment_9.key, 2, 336,  0,0, headerDL-lazy-auto.txt, 0, 1
_, ./Basic/Triple_integrator.key, 47, 5220,  0,0, headerDL-lazy-auto.txt, 0, 0
_, ./Advanced/ATC__2_Aircraft_Tangential_Roundabout_Maneuver.key, 224, 8114,  0,0, headerDL-lazy-auto.txt, 0, 0
_, ./Advanced/ATC__3_Aircraft_Tangential_Roundabout_Maneuver.key, 392, 24398,  0,0, headerDL-lazy-auto.txt, 0, 0
_, ./Advanced/ATC__4_Aircraft_Tangential_Roundabout_Maneuver.key, 633, 83404,  0,0, headerDL-lazy-auto.txt, 0, 0
_, ./Advanced/ETCS__Essentials.key, 78, 2127,  0,0, headerDL-lazy-auto.txt, 0, 0
_, ./Advanced/ETCS__Proposition_1__Controllability_.key, 21, 728,  0,0, headerDL-lazy-auto.txt, 0, 0
E, ./Advanced/ETCS__Proposition_4__Reactivity_.key, NA, 1500000, NA, NA, headerDL-lazy-auto.txt, 0, ERROR
E, ./Advanced/Robot_collision_avoidance_in_two_dimensional_space__Passive_safety.key, 7, 252851,  0,0, headerDL-lazy-auto.txt, 0, 1
E, ./Advanced/Robot_collision_avoidance_in_two_dimensional_space__Static_safety.key, 6, 252753,  0,0, headerDL-lazy-auto.txt, 0, 1
_, ./Nonlinear/1D_Saddle_Node.key, 6, 651,  0,0, headerDL-lazy-auto.txt, 0, 0
E, ./Nonlinear/Ahmadi_Parrilo_Krstic.key, 9, 1296,  0,0, headerDL-lazy-auto.txt, 0, 1
E, ./Nonlinear/Alongi_Nelson_Ex_4_1_9_page_143.key, 3, 10967,  0,0, headerDL-lazy-auto.txt, 0, 1
E, ./Nonlinear/Arrowsmith_Place_Fig_1_29_page_14.key, 2, 561,  0,0, headerDL-lazy-auto.txt, 0, 1
_, ./Nonlinear/Arrowsmith_Place_Fig_1_30_page_14.key, 12, 4052,  0,0, headerDL-lazy-auto.txt, 0, 0
_, ./Nonlinear/Arrowsmith_Place_Fig_1_31_page_14.key, 20, 588,  0,0, headerDL-lazy-auto.txt, 0, 0
E, ./Nonlinear/Arrowsmith_Place_Fig_1_32_page_14.key, 9, 20930,  0,0, headerDL-lazy-auto.txt, 0, 1
E, ./Nonlinear/Arrowsmith_Place_Fig_1_35_page_17.key, 2, 11553,  0,0, headerDL-lazy-auto.txt, 0, 1
T, ./Nonlinear/Arrowsmith_Place_Fig_3_11_page_83.key, NA, 300000, NA, NA, headerDL-lazy-auto.txt, 0, TIMEOUT
E, ./Nonlinear/Arrowsmith_Place_Fig_3_1_page_72.key, 1, 803,  0,0, headerDL-lazy-auto.txt, 0, 1
E, ./Nonlinear/Arrowsmith_Place_Fig_3_5c_page_79.key, 1, 121528,  0,0, headerDL-lazy-auto.txt, 0, 1
E, ./Nonlinear/Arrowsmith_Place_Fig_3_5e_page_79.key, 2, 39837,  0,0, headerDL-lazy-auto.txt, 0, 1
T, ./Nonlinear/Arrowsmith_Place_Fig_3_8_page_82.key, NA, 300000, NA, NA, headerDL-lazy-auto.txt, 0, TIMEOUT
E, ./Nonlinear/Arrowsmith_Place_Fig_3_9_page_83.key, 2, 25383,  0,0, headerDL-lazy-auto.txt, 0, 1
E, ./Nonlinear/Ben_Sassi_Girard_20104_Moore_Greitzer_Jet.key, 1, 68501,  0,0, headerDL-lazy-auto.txt, 0, 1
E, ./Nonlinear/Ben_Sassi_Girard_Sankaranarayanan_2014_Fitzhugh_Nagumo.key, 1, 67001,  0,0, headerDL-lazy-auto.txt, 0, 1
E, ./Nonlinear/Bhatia_Szego_Ex_2_4_page_68.key, 1, 906,  0,0, headerDL-lazy-auto.txt, 0, 1
T, ./Nonlinear/Collin_Goriely_page_60.key, NA, 300000, NA, NA, headerDL-lazy-auto.txt, 0, TIMEOUT
E, ./Nonlinear/Dai_Gan_Xia_Zhan_JSC14_Ex__1.key, 1, 200210,  0,0, headerDL-lazy-auto.txt, 0, 1
E, ./Nonlinear/Dai_Gan_Xia_Zhan_JSC14_Ex__2.key, 1, 37582,  0,0, headerDL-lazy-auto.txt, 0, 1
E, ./Nonlinear/Dai_Gan_Xia_Zhan_JSC14_Ex__5.key, 1, 65738,  0,0, headerDL-lazy-auto.txt, 0, 1
E, ./Nonlinear/Darboux_Christoffel_Int_Goriely_page_58.key, 1, 12528,  0,0, headerDL-lazy-auto.txt, 0, 1
E, ./Nonlinear/Djaballah_Chapoutot_Kieffer_Bouissou_2015_Ex__1.key, 1, 21875,  0,0, headerDL-lazy-auto.txt, 0, 1
T, ./Nonlinear/Dumortier_Llibre_Artes_Ex__10_11.key, NA, 300000, NA, NA, headerDL-lazy-auto.txt, 0, TIMEOUT
E, ./Nonlinear/Dumortier_Llibre_Artes_Ex__10_11b.key, 26, 197196,  0,0, headerDL-lazy-auto.txt, 0, 1
E, ./Nonlinear/Dumortier_Llibre_Artes_Ex__10_15_i.key, 4, 131238,  0,0, headerDL-lazy-auto.txt, 0, 1
T, ./Nonlinear/Dumortier_Llibre_Artes_Ex__10_15_ii.key, NA, 300000, NA, NA, headerDL-lazy-auto.txt, 0, TIMEOUT
E, ./Nonlinear/Dumortier_Llibre_Artes_Ex__10_9.key, 1, 106680,  0,0, headerDL-lazy-auto.txt, 0, 1
E, ./Nonlinear/Dumortier_Llibre_Artes_Ex__1_11a.key, 4, 115567,  0,0, headerDL-lazy-auto.txt, 0, 1
E, ./Nonlinear/Dumortier_Llibre_Artes_Ex__1_11b.key, 4, 115610,  0,0, headerDL-lazy-auto.txt, 0, 1
E, ./Nonlinear/Dumortier_Llibre_Artes_Ex__1_9a.key, 4, 159910,  0,0, headerDL-lazy-auto.txt, 0, 1
E, ./Nonlinear/Dumortier_Llibre_Artes_Ex__1_9b.key, 4, 159813,  0,0, headerDL-lazy-auto.txt, 0, 1
E, ./Nonlinear/Dumortier_Llibre_Artes_Ex__5_13.key, 4, 1526,  0,0, headerDL-lazy-auto.txt, 0, 1
E, ./Nonlinear/Dumortier_Llibre_Artes_Ex__5_1_ii.key, 4, 90435,  0,0, headerDL-lazy-auto.txt, 0, 1
E, ./Nonlinear/Dumortier_Llibre_Artes_Ex__5_2.key, 4, 36931,  0,0, headerDL-lazy-auto.txt, 0, 1
E, ./Nonlinear/Dumortier_Llibre_Artes_Ex__5_2_ii.key, 4, 25607,  0,0, headerDL-lazy-auto.txt, 0, 1
E, ./Nonlinear/Fitzhugh_Nagumo_Ben_Sassi_Girard_2.key, 8, 67180,  0,0, headerDL-lazy-auto.txt, 0, 1
T, ./Nonlinear/Forsman_Phd_Ex_6_14_page_119.key, NA, 300000, NA, NA, headerDL-lazy-auto.txt, 0, TIMEOUT
E, ./Nonlinear/Forsman_Phd_Ex_6_1_page_99.key, 26, 1891,  0,0, headerDL-lazy-auto.txt, 0, 1
E, ./Nonlinear/Hamiltonian_System_1.key, 1, 1111,  0,0, headerDL-lazy-auto.txt, 0, 1
E, ./Nonlinear/Invariant_3_dim_sphere.key, 3, 1039,  0,0, headerDL-lazy-auto.txt, 0, 1
_, ./Nonlinear/KeYmaera_Nonlinear_1.key, 11, 442,  0,0, headerDL-lazy-auto.txt, 0, 0
_, ./Nonlinear/KeYmaera_Nonlinear_Diffcut.key, 23, 68445,  0,0, headerDL-lazy-auto.txt, 0, 0
E, ./Nonlinear/Liu_Zhan_Zhao_Emsoft11_Example_25.key, 1, 10797,  0,0, headerDL-lazy-auto.txt, 0, 1
E, ./Nonlinear/Locally_stable_nonlinear_system.key, 2, 122560,  0,0, headerDL-lazy-auto.txt, 0, 1
_, ./Nonlinear/Lotka_Volterra_Fourth_Quadrant.key, 10, 2380,  0,0, headerDL-lazy-auto.txt, 0, 0
E, ./Nonlinear/MIT_astronautics_Lyapunov.key, 2, 123646,  0,0, headerDL-lazy-auto.txt, 0, 1
T, ./Nonlinear/Man_Maccallum_Goriely_Page_57.key, NA, 300000, NA, NA, headerDL-lazy-auto.txt, 0, TIMEOUT
E, ./Nonlinear/Prajna_PhD_Thesis_2_4_1_Page_31.key, 29, 2201,  0,0, headerDL-lazy-auto.txt, 0, 1
E, ./Nonlinear/Shimizu_Morioka_System.key, 3, 783,  0,0, headerDL-lazy-auto.txt, 0, 1
E, ./Nonlinear/Stable_Limit_Cycle_1.key, 1, 684,  0,0, headerDL-lazy-auto.txt, 0, 1
E, ./Nonlinear/Stable_Limit_Cycle_2.key, 1, 787,  0,0, headerDL-lazy-auto.txt, 0, 1
E, ./Nonlinear/Strogatz_Example_6_3_2.key, 4, 2741,  0,0, headerDL-lazy-auto.txt, 0, 1
E, ./Nonlinear/Strogatz_Example_6_8_3.key, 1, 250539,  0,0, headerDL-lazy-auto.txt, 0, 1
E, ./Nonlinear/Strogatz_Exercise_6_1_5.key, 1, 42511,  0,0, headerDL-lazy-auto.txt, 0, 1
E, ./Nonlinear/Strogatz_Exercise_6_1_9_Dipole.key, 26, 1807,  0,0, headerDL-lazy-auto.txt, 0, 1
E, ./Nonlinear/Strogatz_Exercise_6_6_1_Reversible_System.key, 1, 938,  0,0, headerDL-lazy-auto.txt, 0, 1
E, ./Nonlinear/Strogatz_Exercise_6_6_2_Limit_Cycle.key, 1, 90680,  0,0, headerDL-lazy-auto.txt, 0, 1
E, ./Nonlinear/Strogatz_Exercise_7_3_5.key, 1, 1959,  0,0, headerDL-lazy-auto.txt, 0, 1
_, ./Nonlinear/Synthetic_Example_1.key, 12, 14964,  0,0, headerDL-lazy-auto.txt, 0, 0
E, ./Nonlinear/Unstable_Unit_Circle_1.key, 2, 731,  0,0, headerDL-lazy-auto.txt, 0, 1
E, ./Nonlinear/Unstable_Unit_Circle_2.key, 2, 775,  0,0, headerDL-lazy-auto.txt, 0, 1
E, ./Nonlinear/Unstable_Unit_Circle_3.key, 2, 841,  0,0, headerDL-lazy-auto.txt, 0, 1
E, ./Nonlinear/Van_der_Pol_Fourth_Quadrant.key, 2, 32743,  0,0, headerDL-lazy-auto.txt, 0, 1
E, ./Nonlinear/Vinograd_System_Chicone_1_145_Page_80.key, 2, 123122,  0,0, headerDL-lazy-auto.txt, 0, 1
E, ./Nonlinear/Wien_bridge_oscillator.key, 2, 66095,  0,0, headerDL-lazy-auto.txt, 0, 1
E, ./Nonlinear/Wiggins_Example_17_1_2.key, 1, 49665,  0,0, headerDL-lazy-auto.txt, 0, 1
E, ./Nonlinear/Wiggins_Example_18_1_2.key, 1, 68838,  0,0, headerDL-lazy-auto.txt, 0, 1
E, ./Nonlinear/Wiggins_Example_18_7_3_n.key, 1, 124110,  0,0, headerDL-lazy-auto.txt, 0, 1
, %% END , %%Thu Jun 14 12:58:33 EDT 2018

